Miscellaneous functions for labelled data • tablab
…
Change value:

df2[1:2,"sex"] <- 3

Tabulate the count comparison:

list(df, df2) %>% cmp_cts()
#> # A tibble: 25 × 6
#>    var     nv1 cv1     nv2 cv2       n
#>    <chr> <int> <chr> <int> <chr> <int>
#>  1 sex       1 <NA>      1 <NA>      3
#>  2 sex       1 <NA>      3 <NA>      1
#>  3 sex       1 <NA>     NA <NA>      1
#>  4 sex       2 <NA>      2 <NA>      3
#>  5 sex       2 <NA>      3 <NA>      1
#>  6 sex       2 <NA>     NA <NA>      1
#>  7 age      18 <NA>     18 <NA>      1
#>  8 age      23 <NA>     23 <NA>      3
#>  9 age      24 <NA>     24 <NA>      1
#> 10 age      30 <NA>     30 <NA>      1
#> # … with 15 more rows
…
