Compare counts and labels of a list of dataframes — cmp_all • tablab
…
# create a modified copy:
df2 <- df1
df2[1, "Species"] <- 2
# modify the value label of "setosa"
df2$Species <- haven::labelled(df2$Species,
                               labels = c(setosa_mod = 1, versicolor = 2, virginica = 3),
                               label = "Species")

# compare the dataframes counts:
cmp_all(list(df1, df2))

#> No variable in the data.frame has a variable label
#> # A tibble: 127 × 15
#>    var              n   nv1   nv2 nv_diff cv1   cv2   cv_diff vallab1 vallab2
#>    <chr>        <int> <dbl> <dbl> <lgl>   <chr> <chr> <lgl>   <chr>   <chr>  
#>  1 Sepal.Length     1   4.3   4.3 FALSE   NA    NA    FALSE   NA      NA     
#>  2 Sepal.Length     3   4.4   4.4 FALSE   NA    NA    FALSE   NA      NA     
#>  3 Sepal.Length     1   4.5   4.5 FALSE   NA    NA    FALSE   NA      NA     
#>  4 Sepal.Length     4   4.6   4.6 FALSE   NA    NA    FALSE   NA      NA     
#>  5 Sepal.Length     2   4.7   4.7 FALSE   NA    NA    FALSE   NA      NA     
#>  6 Sepal.Length     5   4.8   4.8 FALSE   NA    NA    FALSE   NA      NA     
#>  7 Sepal.Length     6   4.9   4.9 FALSE   NA    NA    FALSE   NA      NA     
#>  8 Sepal.Length    10   5     5   FALSE   NA    NA    FALSE   NA      NA     
#>  9 Sepal.Length     9   5.1   5.1 FALSE   NA    NA    FALSE   NA      NA     
#> 10 Sepal.Length     4   5.2   5.2 FALSE   NA    NA    FALSE   NA      NA     
#> # … with 117 more rows, and 5 more variables: vallab_diff <lgl>, varlab1 <chr>,
#> #   varlab2 <chr>, varlab_diff <lgl>, any_diff <lgl>
…
# compare the dataframes counts:
l <- list(df1, df2, df3)
cmp <- cmp_all(l)

#> No variable in the data.frame has a variable label
cmp

#> # A tibble: 128 × 19
#>    var              n   nv1   nv2   nv3 nv_diff cv1   cv2   cv3   cv_diff vallab1
#>    <chr>        <int> <dbl> <dbl> <dbl> <lgl>   <chr> <chr> <chr> <lgl>   <chr>  
#>  1 Sepal.Length     1   4.3   4.3   4.3 FALSE   NA    NA    NA    FALSE   NA     
#>  2 Sepal.Length     3   4.4   4.4   4.4 FALSE   NA    NA    NA    FALSE   NA     
#>  3 Sepal.Length     1   4.5   4.5   4.5 FALSE   NA    NA    NA    FALSE   NA     
#>  4 Sepal.Length     4   4.6   4.6   4.6 FALSE   NA    NA    NA    FALSE   NA     
#>  5 Sepal.Length     2   4.7   4.7   4.7 FALSE   NA    NA    NA    FALSE   NA     
#>  6 Sepal.Length     5   4.8   4.8   4.8 FALSE   NA    NA    NA    FALSE   NA     
#>  7 Sepal.Length     6   4.9   4.9   4.9 FALSE   NA    NA    NA    FALSE   NA     
#>  8 Sepal.Length    10   5     5     5   FALSE   NA    NA    NA    FALSE   NA     
#>  9 Sepal.Length     9   5.1   5.1   5.1 FALSE   NA    NA    NA    FALSE   NA     
#> 10 Sepal.Length     4   5.2   5.2   5.2 FALSE   NA    NA    NA    FALSE   NA     
#> # … with 118 more rows, and 8 more variables: vallab2 <chr>, vallab3 <chr>,
#> #   vallab_diff <lgl>, varlab1 <chr>, varlab2 <chr>, varlab3 <chr>,
#> #   varlab_diff <lgl>, any_diff <lgl>
…
