Compare counts of a list of dataframes — cmp_cts • tablab
…
# load spss data
path <- system.file("examples", "iris.sav", package = "haven")
df1 <- haven::read_sav(path) %>%
  # add id column
  tibble::rownames_to_column("id")

# create a modified copy:
df2 <- df1
df2[1, "Species"] <- 2

# compare the dataframes counts:
cmp_cts(list(df1, df2))

#> # A tibble: 127 × 6
#>    var            nv1 cv1     nv2 cv2       n
#>    <chr>        <dbl> <chr> <dbl> <chr> <int>
#>  1 Sepal.Length   4.3 NA      4.3 NA        1
#>  2 Sepal.Length   4.4 NA      4.4 NA        3
#>  3 Sepal.Length   4.5 NA      4.5 NA        1
#>  4 Sepal.Length   4.6 NA      4.6 NA        4
#>  5 Sepal.Length   4.7 NA      4.7 NA        2
#>  6 Sepal.Length   4.8 NA      4.8 NA        5
#>  7 Sepal.Length   4.9 NA      4.9 NA        6
#>  8 Sepal.Length   5   NA      5   NA       10
#>  9 Sepal.Length   5.1 NA      5.1 NA        9
#> 10 Sepal.Length   5.2 NA      5.2 NA        4
#> # … with 117 more rows
…
#> # A tibble: 1 × 6
#>   var       nv1 cv1     nv2 cv2       n
#>   <chr>   <dbl> <chr> <dbl> <chr> <int>
#> 1 Species     1 NA        2 NA        1

# Create another modified copy
df3 <- df2
df3[2, "Species"] <- 3

# compare the dataframes counts:
l <- list(df1, df2, df3)
cmp <- cmp_cts(l)
cmp

#> # A tibble: 128 × 8
#>    var            nv1 cv1     nv2 cv2     nv3 cv3       n
#>    <chr>        <dbl> <chr> <dbl> <chr> <dbl> <chr> <int>
#>  1 Sepal.Length   4.3 NA      4.3 NA      4.3 NA        1
#>  2 Sepal.Length   4.4 NA      4.4 NA      4.4 NA        3
#>  3 Sepal.Length   4.5 NA      4.5 NA      4.5 NA        1
#>  4 Sepal.Length   4.6 NA      4.6 NA      4.6 NA        4
#>  5 Sepal.Length   4.7 NA      4.7 NA      4.7 NA        2
#>  6 Sepal.Length   4.8 NA      4.8 NA      4.8 NA        5
#>  7 Sepal.Length   4.9 NA      4.9 NA      4.9 NA        6
#>  8 Sepal.Length   5   NA      5   NA      5   NA       10
#>  9 Sepal.Length   5.1 NA      5.1 NA      5.1 NA        9
#> 10 Sepal.Length   5.2 NA      5.2 NA      5.2 NA        4
#> # … with 118 more rows
…
